{
  "users": [
    {
      "id": "cc313ebb-4556-4c74-94fb-66041b788420",
      "email": "blahblah@email.com",
      "handle": "blah-blah"
    },
    {
      "id": "ae1a2e2b-ad44-43b1-a0af-7696c67bc25c",
      "email": "nother_guy@gmail.com",
      "handle": "nother_guy"
    },
    {
      "id": "93704b3a-f3aa-4528-91e6-52362692719d",
      "email": "oldman@aol",
      "handle": "grandpa4592"
    }
  ]
}
